DS 622: Homwork 1 (Penguins Regressions)
…
tidy(model_3)

## # A tibble: 22 x 6
##    y.level   term              estimate std.error   statistic     p.value
##    <chr>     <chr>                <dbl>     <dbl>       <dbl>       <dbl>
##  1 Chinstrap (Intercept)        -0.114    0.00363   -31.3       3.31e-215
##  2 Chinstrap island.Biscoe     -60.2    NaN         NaN       NaN        
##  3 Chinstrap island.Dream       64.7      0.00363 17834.        0.       
##  4 Chinstrap island.Torgersen   -4.57   NaN         NaN       NaN        
##  5 Chinstrap bill_length_mm     23.7     11.3         2.10      3.58e-  2
##  6 Chinstrap bill_depth_mm     -39.5      4.20       -9.41      4.84e- 21
##  7 Chinstrap flipper_length_mm  -0.598   81.4        -0.00734   9.94e-  1
##  8 Chinstrap body_mass_g        -0.0299  13.4        -0.00222   9.98e-  1
##  9 Chinstrap sex.female         14.6      0.495      29.5       2.33e-191
## 10 Chinstrap sex.male          -14.7      0.492     -29.9       5.86e-197
## #  with 12 more rows
…
